This is BibTeX, Version 0.99d (TeX Live 2019/Arch Linux)
Capacity: max_strings=100000, hash_size=100000, hash_prime=85009
The top-level auxiliary file: FullDocTemplate.aux
The style file: ieeetr.bst
Database file #1: Citations.bib
You've used 1 entry,
            1876 wiz_defined-function locations,
            484 strings with 3783 characters,
and the built_in function-call counts, 147 in all, are:
= -- 12
> -- 4
< -- 1
+ -- 2
- -- 1
* -- 12
:= -- 34
add.period$ -- 1
call.type$ -- 1
change.case$ -- 1
chr.to.int$ -- 0
cite$ -- 1
duplicate$ -- 7
empty$ -- 13
format.name$ -- 1
if$ -- 28
int.to.chr$ -- 0
int.to.str$ -- 1
missing$ -- 0
newline$ -- 6
num.names$ -- 1
pop$ -- 2
preamble$ -- 1
purify$ -- 0
quote$ -- 0
skip$ -- 1
stack$ -- 0
substring$ -- 0
swap$ -- 1
text.length$ -- 1
text.prefix$ -- 0
top$ -- 0
type$ -- 0
warning$ -- 0
while$ -- 1
width$ -- 2
write$ -- 11
