\relax 
\providecommand*\new@tpo@label[2]{}
\gdef \LT@i {\LT@entry 
    {1}{83.13188pt}\LT@entry 
    {1}{168.49014pt}\LT@entry 
    {1}{40.45274pt}\LT@entry 
    {1}{40.45274pt}\LT@entry 
    {1}{83.13188pt}\LT@entry 
    {1}{83.13188pt}}
\gdef \LT@ii {\LT@entry 
    {1}{168.49014pt}\LT@entry 
    {1}{83.13188pt}\LT@entry 
    {1}{83.13188pt}\LT@entry 
    {1}{68.9055pt}\LT@entry 
    {1}{97.35826pt}}
